Keep a Collection of Sparkly Data Resources • bowerbird
…
Congratulations! You now have your own local copy of your chosen data set. This particular example is fairly small (about 10MB), so it should not take too long to download. Details of the files in this data set are given in the status$files object:

status$files
## [[1]]
## # A tibble: 47 x 3
##    url                              file                             note  
##    <chr>                            <chr>                            <chr> 
##  1 http://results.aec.gov.au/20499~ "c:\\tmp\\data\\results.aec.gov~ downl~
##  2 http://results.aec.gov.au/20499~ "c:\\tmp\\data\\results.aec.gov~ downl~
##  3 http://results.aec.gov.au/20499~ "c:\\tmp\\data\\results.aec.gov~ downl~
##  4 http://results.aec.gov.au/20499~ "c:\\tmp\\data\\results.aec.gov~ downl~
##  5 http://results.aec.gov.au/20499~ "c:\\tmp\\data\\results.aec.gov~ downl~
##  6 http://results.aec.gov.au/20499~ "c:\\tmp\\data\\results.aec.gov~ downl~
##  7 http://results.aec.gov.au/20499~ "c:\\tmp\\data\\results.aec.gov~ downl~
##  8 http://results.aec.gov.au/20499~ "c:\\tmp\\data\\results.aec.gov~ downl~
##  9 http://results.aec.gov.au/20499~ "c:\\tmp\\data\\results.aec.gov~ downl~
## 10 http://results.aec.gov.au/20499~ "c:\\tmp\\data\\results.aec.gov~ downl~
## # ... with 37 more rows
…
